…
```r
deserts #the NAs are treated like real NAs, the data looks tidy
```

```
## # A tibble: 34,786 × 13
##    record…¹ month   day  year plot_id speci…² sex   hindf…³ weight genus species
##       <dbl> <dbl> <dbl> <dbl>   <dbl> <chr>   <chr>   <dbl>  <dbl> <chr> <chr>  
##  1        1     7    16  1977       2 NL      M          32     NA Neot… albigu…
##  2        2     7    16  1977       3 NL      M          33     NA Neot… albigu…
##  3        3     7    16  1977       2 DM      F          37     NA Dipo… merria…
##  4        4     7    16  1977       7 DM      M          36     NA Dipo… merria…
##  5        5     7    16  1977       3 DM      M          35     NA Dipo… merria…
##  6        6     7    16  1977       1 PF      M          14     NA Pero… flavus 
##  7        7     7    16  1977       2 PE      F          NA     NA Pero… eremic…
##  8        8     7    16  1977       1 DM      M          37     NA Dipo… merria…
##  9        9     7    16  1977       1 DM      F          34     NA Dipo… merria…
## 10       10     7    16  1977       6 PF      F          20     NA Pero… flavus 
## # … with 34,776 more rows, 2 more variables: taxa <chr>, plot_type <chr>, and
## #   abbreviated variable names ¹​record_id, ²​species_id, ³​hindfoot_length
```
…
9. Which two species have, on average, the highest weight? Once you have identified them, make a new column that is a ratio of `weight` to `hindfoot_length`. Make a plot that shows the range of this new ratio and fill by sex.

```r
deserts %>% 
  group_by(species) %>% 
  summarize(mean_weight = mean(weight, na.rm=T)) %>% 
  arrange(desc(mean_weight)) #albigula and spectabilis have highest avg weight
```

```
## # A tibble: 40 × 2
##    species      mean_weight
##    <chr>              <dbl>
##  1 albigula           159. 
##  2 spectabilis        120. 
##  3 spilosoma           93.5
##  4 hispidus            65.6
##  5 fulviventer         58.9
##  6 ochrognathus        55.4
##  7 ordii               48.9
##  8 merriami            43.2
##  9 baileyi             31.7
## 10 leucogaster         31.6
## # … with 30 more rows
```
…
10. Make one plot of your choice! Make sure to include at least two of the aesthetics options you have learned.

```r
deserts
```

```
## # A tibble: 34,786 × 13
##    record…¹ month   day  year plot_id speci…² sex   hindf…³ weight genus species
##       <dbl> <dbl> <dbl> <dbl>   <dbl> <chr>   <chr>   <dbl>  <dbl> <chr> <chr>  
##  1        1     7    16  1977       2 NL      M          32     NA Neot… albigu…
##  2        2     7    16  1977       3 NL      M          33     NA Neot… albigu…
##  3        3     7    16  1977       2 DM      F          37     NA Dipo… merria…
##  4        4     7    16  1977       7 DM      M          36     NA Dipo… merria…
##  5        5     7    16  1977       3 DM      M          35     NA Dipo… merria…
##  6        6     7    16  1977       1 PF      M          14     NA Pero… flavus 
##  7        7     7    16  1977       2 PE      F          NA     NA Pero… eremic…
##  8        8     7    16  1977       1 DM      M          37     NA Dipo… merria…
##  9        9     7    16  1977       1 DM      F          34     NA Dipo… merria…
## 10       10     7    16  1977       6 PF      F          20     NA Pero… flavus 
## # … with 34,776 more rows, 2 more variables: taxa <chr>, plot_type <chr>, and
## #   abbreviated variable names ¹​record_id, ²​species_id, ³​hindfoot_length
```
…
