…
Problem 6. (2 points) The family Anatidae includes ducks, geese, and swans. Make a new object `ducks` that only includes species in the family Anatidae. Restrict this new dataframe to include all variables except order and family.

```r
ducks <- filter(ecosphere, family == "Anatidae") %>% 
select(-"order", -"family")
ducks
```

```
## # A tibble: 44 × 19
##    commo…¹ scien…² diet  life_…³ habitat urban…⁴ migra…⁵ log10…⁶ mean_…⁷ mean_…⁸
##    <chr>   <chr>   <chr> <chr>   <chr>   <chr>   <chr>     <dbl>   <dbl>   <dbl>
##  1 "Ameri… Anas r… Vege… Long    Wetland No      Short      3.09     9       1  
##  2 "Ameri… Anas a… Vege… Middle  Wetland No      Short      2.88     7.5     1  
##  3 "Barro… Buceph… Inve… Middle  Wetland No      Modera…    2.96    10.5     3  
##  4 "Black… Branta… Vege… Long    Wetland No      Modera…    3.11     3.5     2.5
##  5 "Black… Melani… Inve… Middle  Wetland No      Modera…    3.02     9.5     2  
##  6 "Black… Dendro… Vege… Short   Wetland No      Withdr…    2.88    13.5     1  
##  7 "Blue-… Anas d… Vege… Middle  Wetland No      Modera…    2.56    10       0.6
##  8 "Buffl… Buceph… Inve… Middle  Wetland No      Short      2.6      8.5     2  
##  9 "Cackl… Branta… Vege… Middle  Wetland Yes     Short      3.45     5       1  
## 10 "Canva… Aythya… Vege… Middle  Wetland No      Short      3.08     8       1  
## # … with 34 more rows, 9 more variables: population_size <dbl>,
## #   winter_range_area <dbl>, range_in_cbc <dbl>, strata <dbl>, circles <dbl>,
## #   feeder_bird <chr>, median_trend <dbl>, lower_95_percent_ci <dbl>,
## #   upper_95_percent_ci <dbl>, and abbreviated variable names ¹​common_name,
## #   ²​scientific_name, ³​life_expectancy, ⁴​urban_affiliate, ⁵​migratory_strategy,
## #   ⁶​log10_mass, ⁷​mean_eggs_per_clutch, ⁸​mean_age_at_sexual_maturity
```
…
Problem 8. (4 points) In ducks, how is mean body mass associated with migratory strategy? Do the ducks that migrate long distances have high or low average body mass?

```r
ducks %>% 
  select("log10_mass", "migratory_strategy") %>% 
  arrange(migratory_strategy)
```

```
## # A tibble: 44 × 2
##    log10_mass migratory_strategy
##         <dbl> <chr>             
##  1       2.89 Long              
##  2       2.85 Long              
##  3       2.96 Moderate          
##  4       3.11 Moderate          
##  5       3.02 Moderate          
##  6       2.56 Moderate          
##  7       3.33 Moderate          
##  8       3    Moderate          
##  9       3.4  Moderate          
## 10       2.75 Moderate          
## # … with 34 more rows
```
…
