…
**4. What taxa are represented in the `homerange` data frame? Make a new data frame `taxa` that is restricted to taxon, common name, class, order, family, genus, species.**

```r
homerange <- select_all(homerange, tolower)
select_all(homerange, ~str_replace(., " ", "_"))
```

```
## # A tibble: 569 × 24
##    taxon  commo…¹ class order family genus species prima…² n     mean.…³ log10…⁴
##    <fct>  <chr>   <chr> <fct> <chr>  <chr> <chr>   <chr>   <chr>   <dbl>   <dbl>
##  1 lake … americ… acti… angu… angui… angu… rostra… teleme… 16       887    2.95 
##  2 river… blackt… acti… cypr… catos… moxo… poecil… mark-r… <NA>     562    2.75 
##  3 river… centra… acti… cypr… cypri… camp… anomal… mark-r… 20        34    1.53 
##  4 river… rosysi… acti… cypr… cypri… clin… fundul… mark-r… 26         4    0.602
##  5 river… longno… acti… cypr… cypri… rhin… catara… mark-r… 17         4    0.602
##  6 river… muskel… acti… esoc… esoci… esox  masqui… teleme… 5       3525    3.55 
##  7 marin… pollack acti… gadi… gadid… poll… pollac… teleme… 2        737.   2.87 
##  8 marin… saithe  acti… gadi… gadid… poll… virens  teleme… 2        449.   2.65 
##  9 marin… lined … acti… perc… acant… acan… lineat… direct… <NA>     109.   2.04 
## 10 marin… orange… acti… perc… acant… naso  litura… teleme… 8        772.   2.89 
## # … with 559 more rows, 13 more variables: alternative.mass.reference <chr>,
## #   mean.hra.m2 <dbl>, log10.hra <dbl>, hra.reference <chr>, realm <chr>,
## #   thermoregulation <chr>, locomotion <chr>, trophic.guild <chr>,
## #   dimension <dbl>, preymass <dbl>, log10.preymass <dbl>, ppmr <dbl>,
## #   prey.size.reference <chr>, and abbreviated variable names ¹​common.name,
## #   ²​primarymethod, ³​mean.mass.g, ⁴​log10.mass
```
…
```r
taxa <- select(homerange, "taxon", "common.name","class", "order", "family", "genus", "species")
taxa
```

```
## # A tibble: 569 × 7
##    taxon         common.name             class        order family genus species
##    <fct>         <chr>                   <chr>        <fct> <chr>  <chr> <chr>  
##  1 lake fishes   american eel            actinoptery… angu… angui… angu… rostra…
##  2 river fishes  blacktail redhorse      actinoptery… cypr… catos… moxo… poecil…
##  3 river fishes  central stoneroller     actinoptery… cypr… cypri… camp… anomal…
##  4 river fishes  rosyside dace           actinoptery… cypr… cypri… clin… fundul…
##  5 river fishes  longnose dace           actinoptery… cypr… cypri… rhin… catara…
##  6 river fishes  muskellunge             actinoptery… esoc… esoci… esox  masqui…
##  7 marine fishes pollack                 actinoptery… gadi… gadid… poll… pollac…
##  8 marine fishes saithe                  actinoptery… gadi… gadid… poll… virens 
##  9 marine fishes lined surgeonfish       actinoptery… perc… acant… acan… lineat…
## 10 marine fishes orangespine unicornfish actinoptery… perc… acant… naso  litura…
## # … with 559 more rows
```
…
**7. Make two new data frames, one which is restricted to carnivores and another that is restricted to herbivores.**  

```r
carnivores <- filter(homerange, trophic.guild == "carnivore")
carnivores
```

```
## # A tibble: 342 × 24
##    taxon  commo…¹ class order family genus species prima…² n     mean.…³ log10…⁴
##    <fct>  <chr>   <chr> <fct> <chr>  <chr> <chr>   <chr>   <chr>   <dbl>   <dbl>
##  1 lake … americ… acti… angu… angui… angu… rostra… teleme… 16       887    2.95 
##  2 river… blackt… acti… cypr… catos… moxo… poecil… mark-r… <NA>     562    2.75 
##  3 river… centra… acti… cypr… cypri… camp… anomal… mark-r… 20        34    1.53 
##  4 river… rosysi… acti… cypr… cypri… clin… fundul… mark-r… 26         4    0.602
##  5 river… longno… acti… cypr… cypri… rhin… catara… mark-r… 17         4    0.602
##  6 river… muskel… acti… esoc… esoci… esox  masqui… teleme… 5       3525    3.55 
##  7 marin… pollack acti… gadi… gadid… poll… pollac… teleme… 2        737.   2.87 
##  8 marin… saithe  acti… gadi… gadid… poll… virens  teleme… 2        449.   2.65 
##  9 marin… giant … acti… perc… caran… cara… ignobi… teleme… 4        726.   2.86 
## 10 lake … rock b… acti… perc… centr… ambl… rupest… mark-r… 16       196    2.29 
## # … with 332 more rows, 13 more variables: alternative.mass.reference <chr>,
## #   mean.hra.m2 <dbl>, log10.hra <dbl>, hra.reference <chr>, realm <chr>,
## #   thermoregulation <chr>, locomotion <chr>, trophic.guild <chr>,
## #   dimension <dbl>, preymass <dbl>, log10.preymass <dbl>, ppmr <dbl>,
## #   prey.size.reference <chr>, and abbreviated variable names ¹​common.name,
## #   ²​primarymethod, ³​mean.mass.g, ⁴​log10.mass
```

```r
herbivores <- filter(homerange, trophic.guild == "herbivore")
herbivores
```

```
## # A tibble: 227 × 24
##    taxon  commo…¹ class order family genus species prima…² n     mean.…³ log10…⁴
##    <fct>  <chr>   <chr> <fct> <chr>  <chr> <chr>   <chr>   <chr>   <dbl>   <dbl>
##  1 marin… lined … acti… perc… acant… acan… lineat… direct… <NA>   109.     2.04 
##  2 marin… orange… acti… perc… acant… naso  litura… teleme… 8      772.     2.89 
##  3 marin… bluesp… acti… perc… acant… naso  unicor… teleme… 7      152.     2.18 
##  4 marin… redlip… acti… perc… blenn… ophi… atlant… direct… 20       6.2    0.792
##  5 marin… bermud… acti… perc… kypho… kyph… sectat… teleme… 11    1087.     3.04 
##  6 marin… cherub… acti… perc… pomac… cent… argi    direct… <NA>     2.5    0.398
##  7 marin… damsel… acti… perc… pomac… chro… chromis direct… <NA>    28.4    1.45 
##  8 marin… twinsp… acti… perc… pomac… chry… biocel… direct… 18       9.19   0.963
##  9 marin… wards … acti… perc… pomac… poma… wardi   direct… <NA>    10.5    1.02 
## 10 marin… austra… acti… perc… pomac… steg… apical… direct… <NA>    45.3    1.66 
## # … with 217 more rows, 13 more variables: alternative.mass.reference <chr>,
## #   mean.hra.m2 <dbl>, log10.hra <dbl>, hra.reference <chr>, realm <chr>,
## #   thermoregulation <chr>, locomotion <chr>, trophic.guild <chr>,
## #   dimension <dbl>, preymass <dbl>, log10.preymass <dbl>, ppmr <dbl>,
## #   prey.size.reference <chr>, and abbreviated variable names ¹​common.name,
## #   ²​primarymethod, ³​mean.mass.g, ⁴​log10.mass
```
…
```
## [1] 13039918
```
Herbivores have, on average, a larger "mean.hra.m2"

**9. Make a new dataframe `deer` that is limited to the mean mass, log10 mass, family, genus, and species of deer in the database. The family for deer is cervidae. Arrange the data in descending order by log10 mass. Which is the largest deer? What is its common name?**  

```r
deer <- select(homerange, "mean.mass.g", "log10.mass", "family", "genus", "species" )
deer
```

```
## # A tibble: 569 × 5
##    mean.mass.g log10.mass family       genus       species    
##          <dbl>      <dbl> <chr>        <chr>       <chr>      
##  1        887       2.95  anguillidae  anguilla    rostrata   
##  2        562       2.75  catostomidae moxostoma   poecilura  
##  3         34       1.53  cyprinidae   campostoma  anomalum   
##  4          4       0.602 cyprinidae   clinostomus funduloides
##  5          4       0.602 cyprinidae   rhinichthys cataractae 
##  6       3525       3.55  esocidae     esox        masquinongy
##  7        737.      2.87  gadidae      pollachius  pollachius 
##  8        449.      2.65  gadidae      pollachius  virens     
##  9        109.      2.04  acanthuridae acanthurus  lineatus   
## 10        772.      2.89  acanthuridae naso        lituratus  
## # … with 559 more rows
```
…
**10. As measured by the data, which snake species has the smallest homerange? Show all of your work, please. Look this species up online and tell me about it!** **Snake is found in taxon column** 

```r
snake <- filter(homerange, taxon=="snakes")
snake
```

```
## # A tibble: 41 × 24
##    taxon  commo…¹ class order family genus species prima…² n     mean.…³ log10…⁴
##    <fct>  <chr>   <chr> <fct> <chr>  <chr> <chr>   <chr>   <chr>   <dbl>   <dbl>
##  1 snakes wester… rept… squa… colub… carp… vermis  radiot… 1        3.46   0.539
##  2 snakes easter… rept… squa… colub… carp… viridis radiot… 10       3.65   0.562
##  3 snakes racer   rept… squa… colub… colu… constr… teleme… 15     556.     2.75 
##  4 snakes yellow… rept… squa… colub… colu… constr… teleme… 12     144.     2.16 
##  5 snakes ringne… rept… squa… colub… diad… puncta… mark-r… <NA>     9      0.954
##  6 snakes easter… rept… squa… colub… drym… couperi teleme… 1      450      2.65 
##  7 snakes great … rept… squa… colub… elap… guttat… teleme… 12     257.     2.41 
##  8 snakes wester… rept… squa… colub… elap… obsole… teleme… 18     643.     2.81 
##  9 snakes hognos… rept… squa… colub… hete… platir… teleme… 8      147.     2.17 
## 10 snakes Europe… rept… squa… colub… hier… viridi… teleme… 32     234.     2.37 
## # … with 31 more rows, 13 more variables: alternative.mass.reference <chr>,
## #   mean.hra.m2 <dbl>, log10.hra <dbl>, hra.reference <chr>, realm <chr>,
## #   thermoregulation <chr>, locomotion <chr>, trophic.guild <chr>,
## #   dimension <dbl>, preymass <dbl>, log10.preymass <dbl>, ppmr <dbl>,
## #   prey.size.reference <chr>, and abbreviated variable names ¹​common.name,
## #   ²​primarymethod, ³​mean.mass.g, ⁴​log10.mass
```


```r
snake_mass <- select(snake, "mean.hra.m2", "common.name")
snake_mass
```

```
## # A tibble: 41 × 2
##    mean.hra.m2 common.name          
##          <dbl> <chr>                
##  1         700 western worm snake   
##  2         253 eastern worm snake   
##  3      151000 racer                
##  4      114500 yellow bellied racer 
##  5        6476 ringneck snake       
##  6     1853000 eastern indigo snake 
##  7      150600 great plains ratsnake
##  8       46000 western ratsnake     
##  9      516375 hognose snake        
## 10      110900 European whipsnake   
## # … with 31 more rows
```

```r
arrange(snake_mass, mean.hra.m2)
```

```
## # A tibble: 41 × 2
##    mean.hra.m2 common.name         
##          <dbl> <chr>               
##  1        200  namaqua dwarf adder 
##  2        253  eastern worm snake  
##  3        600  butlers garter snake
##  4        700  western worm snake  
##  5       2400  snubnosed viper     
##  6       2614. chinese pit viper   
##  7       6476  ringneck snake      
##  8      10655  cottonmouth         
##  9      15400  redbacked ratsnake  
## 10      17400  gopher snake        
## # … with 31 more rows
```
…
